<?xml version="1.0" encoding="UTF-8" standalone="no"?>
<!-- Created with Inkscape (http://www.inkscape.org/) -->

<svg
   width="400"
   height="400"
   viewBox="0 0 105.83333 105.83333"
   version="1.1"
   id="svg5"
   inkscape:version="1.2.2 (b0a8486541, 2022-12-01)"
   sodipodi:docname="questionmark.svg"
   inkscape:export-filename="questionmark.png"
   inkscape:export-xdpi="96"
   inkscape:export-ydpi="96"
   xmlns:inkscape="http://www.inkscape.org/namespaces/inkscape"
   xmlns:sodipodi="http://sodipodi.sourceforge.net/DTD/sodipodi-0.dtd"
   xmlns="http://www.w3.org/2000/svg"
   xmlns:svg="http://www.w3.org/2000/svg">
  <sodipodi:namedview
     id="namedview7"
     pagecolor="#ffffff"
     bordercolor="#000000"
     borderopacity="0.25"
     inkscape:showpageshadow="2"
     inkscape:pageopacity="0.0"
     inkscape:pagecheckerboard="0"
     inkscape:deskcolor="#d1d1d1"
     inkscape:document-units="px"
     showgrid="true"
     inkscape:zoom="1.5589927"
     inkscape:cx="135.98524"
     inkscape:cy="191.46979"
     inkscape:window-width="1920"
     inkscape:window-height="1053"
     inkscape:window-x="0"
     inkscape:window-y="27"
     inkscape:window-maximized="1"
     inkscape:current-layer="layer1" />
  <defs
     id="defs2" />
  <g
     inkscape:label="Layer 1"
     inkscape:groupmode="layer"
     id="layer1">
    <g
       aria-label="?"
       id="text113"
       style="font-size:109.76px;fill:#ffffff;stroke:#ffffff;stroke-width:0.321562">
      <path
         d="m 53.410584,67.514743 c 0.32928,-7.6832 1.42688,-9.54912 8.12224,-14.8176 8.451521,-6.47584 9.439361,-7.24416 10.207681,-7.90272 3.8416,-3.2928 6.0368,-8.34176 6.0368,-13.61024 0,-11.963841 -9.65888,-19.537281 -25.025281,-19.537281 -14.48832,0 -24.696,7.02464 -24.696,17.122561 0,5.92704 4.3904,10.20768 10.4272,10.20768 5.59776,0 9.43936,-3.62208 9.43936,-8.89056 0,-2.85376 -1.20736,-5.378241 -3.51232,-7.024641 -2.08544,-1.6464 -2.08544,-1.6464 -2.08544,-2.41472 0,-1.6464 2.41472,-2.744 5.81728,-2.744 6.5856,0 10.31744,4.28064 10.31744,12.073601 0,4.50016 -1.6464,10.09792 -4.3904,15.03712 -6.0368,10.75648 -6.91488,12.95168 -6.91488,17.89088 0,1.0976 0.10976,2.85376 0.32928,4.60992 z m -2.744,6.0368 c -5.70752,0 -10.31744,4.609921 -10.31744,10.317441 0,5.59776 4.60992,10.31744 10.20768,10.31744 5.81728,0 10.4272,-4.60992 10.4272,-10.31744 0,-5.70752 -4.60992,-10.317441 -10.31744,-10.317441 z"
         style="font-weight:bold;font-family:C059;-inkscape-font-specification:'C059 Bold';fill:#ffffff"
         id="path950" />
    </g>
  </g>
</svg>
